n = 0.25;

Point(0) = {-0.500000, -0.000000, 0, n};
Point(1) = {-0.500000, -8.000000, 0, n};
Point(2) = {0.500000, -8.000000, 0, n};
Point(3) = {0.500000, 0.000000, 0, n};
Point(4) = {0.252576, 0.295729, 0, n};
Point(5) = {-4.309860, 4.192417, 0, n};
Point(6) = {-4.815012, 3.600960, 0, n};
Point(7) = {-0.252576, -0.295729, 0, n};
Point(8) = {0.252500, -0.252500, 0, n};
Point(9) = {4.495141, 3.990141, 0, n};
Point(10) = {3.990141, 4.495141, 0, n};
Point(11) = {-0.252500, 0.252500, 0, n};

// Two addition points
Point(12) = {0.4, 1.1, 0, n};
Point(13) = {-1, 1.5, 0, n};

Line(1) = {1, 2};
Line(2) = {2, 3};
Line(3) = {3, 9};
Line(4) = {9, 10};
Line(5) = {10, 12};
Line(6) = {12, 13};
Line(7) = {13, 5};
Line(8) = {5, 6};
Line(9) = {6, 0};
Line(10) = {0, 1};

Line Loop(11) = {7, 8, 9, 10, 1, 2, 3, 4, 5, 6};

Plane Surface(12) = {11};
Physical Line(10) = {9, 7, 6, 5, 3, 2, 10};
Physical Line(2) = {1};
Physical Line(3) = {8};
Physical Line(4) = {4};

Physical Surface(18) = {12};
